56 -32 128 -32 712
392 -32 120 -40 376
-72 128 -16 200 -40 496
8 -64 904
-16 968
64 -80 -80 744
248 -56 672
-64 -24 296 -48 528
-16 968
168 -64 -16 720
72 -16 272 -80 520
-32 8 -56 872
40 -72 40 -40 768
-64 -72 48 -24 72 -8 -8 640
112 -56 808
136 -48 64 -8 72 -32 32 -56 480
-72 64 -64 112 -56 584
72 -8 136 -48 216 -48 416
-48 48 -32 840
8 -8 960
-56 104 -8 800
264 -64 -48 88 -24 -32 424
112 -40 88 -24 696
56 -24 192 -32 -40 608
64 -24 72 -56 224 -64 440
-32 952
