72 -8 -80 808
-32 16 -72 -80 32 -48 -56 -80 512
-48 72 -32 816
-56 928
-32 72 -56 40 -32 720
-8 8 -48 80 -48 -8 744
-80 -24 -40 824
-72 -24 -8 -24 832
-32 8 -80 -80 -72 -24 -16 624
-72 -80 -8 -56 -48 -16 664
-48 -72 -80 -8 8 -40 -56 -72 544
-32 -40 8 -8 -72 -72 -72 632
-8 -16 -16 16 -40 -16 -32 -56 -32 688
-24 32 -48 16 -32 -40 -80 -72 584
-8 -24 8 -8 -32 -32 832
-24 -80 -16 -40 -8 -32 -16 720
-24 -48 -40 -80 -16 -64 -32 632
-24 -24 -8 -56 848
-56 -8 -56 -32 808
-40 -24 32 -32 832
-48 -16 912
48 -48 -24 -24 -80 -72 648
